{
	"bail": true,
	"collectCoverage": true,
	"coverageProvider": "v8",
	"coverageReporters": [
		"text-summary"
	],
	"passWithNoTests": true,
	"testMatch": [
		"**/?(*.)spec.[jt]s"
	],
	"verbose": true
}
